<svg width="41" height="41" viewBox="0 0 41 41" fill="none" xmlns="http://www.w3.org/2000/svg">
<path d="M20.5 41C31.8218 41 41 31.8218 41 20.5C41 9.17816 31.8218 0 20.5 0C9.17816 0 0 9.17816 0 20.5C0 31.8218 9.17816 41 20.5 41Z" fill="#FFD944"/>
<path d="M27.6203 20.5C27.6203 24.4333 24.4333 27.6203 20.5 27.6203C16.5667 27.6203 13.3797 24.4333 13.3797 20.5H0C0 31.8215 9.17853 41 20.5 41C31.8215 41 41 31.8215 41 20.5H27.6203Z" fill="#1F54A1"/>
<path d="M2.73047 30.7173C6.27014 36.8618 12.9012 41.0001 20.4999 41.0001C28.0985 41.0001 34.7296 36.8618 38.2693 30.7173H2.73047Z" fill="#D70E29"/>
<path d="M20.5001 24.9142C18.021 24.9142 16.0093 22.9052 16.0093 20.4233V17.9059C16.0093 15.4268 18.0183 13.415 20.5001 13.415C22.9793 13.415 24.991 15.424 24.991 17.9059V20.4233C24.991 22.9052 22.9793 24.9142 20.5001 24.9142Z" fill="#4880C1"/>
<path d="M22.1975 9.88386C22.203 9.82919 22.2057 9.77179 22.2057 9.71439C22.2057 8.77139 21.4404 8.00879 20.5001 8.00879C19.5571 8.00879 18.7945 8.77412 18.7945 9.71439C18.7945 9.77179 18.7973 9.82919 18.8027 9.88386H13.4263C13.4263 10.7995 14.167 11.5403 15.0827 11.5403L15.1783 11.5785C15.1783 11.6004 15.1756 11.6195 15.1756 11.6387C15.1756 12.5543 15.9163 13.2951 16.832 13.2951C16.8839 13.2951 16.9359 13.2923 16.9878 13.2869C16.9796 13.3552 16.9741 13.4208 16.9741 13.4919C16.9741 14.4075 17.7149 15.1483 18.6305 15.1483H20.5001H22.3725C23.2881 15.1483 24.0289 14.4075 24.0289 13.4919C24.0289 13.4235 24.0234 13.3552 24.0152 13.2869C24.0671 13.2923 24.1191 13.2951 24.171 13.2951C25.0867 13.2951 25.8274 12.5543 25.8274 11.6387C25.8274 11.6168 25.8247 11.5977 25.8247 11.5785L25.9203 11.5403C26.836 11.5403 27.5767 10.7995 27.5767 9.88386H22.1975Z" fill="#1D1D1B"/>
</svg>
