<svg width="41" height="41" viewBox="0 0 41 41" fill="none" xmlns="http://www.w3.org/2000/svg">
<path d="M24.6975 0.430846C23.3431 0.149635 21.9396 0 20.5 0C19.0604 0 17.6595 0.149635 16.3025 0.430846V16.3025H0.430846C0.149635 17.6595 0 19.063 0 20.5C0 21.937 0.149635 23.3431 0.430846 24.6975H16.3025V40.5692C17.6569 40.8504 19.0604 41 20.5 41C21.9396 41 23.3431 40.8504 24.6975 40.5692V24.6975H40.5692C40.8504 23.3431 41 21.9396 41 20.5C41 19.0604 40.8504 17.6569 40.5692 16.3025H24.6975V0.430846Z" fill="#BF0739"/>
</svg>
