<svg width="41" height="41" viewBox="0 0 41 41" fill="none" xmlns="http://www.w3.org/2000/svg">
<path d="M27.5493 1.24365V39.7563C35.3994 36.8809 41 29.3451 41 20.5C41 11.6549 35.3994 4.11912 27.5493 1.24365Z" fill="#D70E29"/>
<path d="M13.4917 39.77C15.6784 40.5654 18.0372 41 20.5 41C22.9764 41 25.3516 40.5599 27.5492 39.7563V1.24367C25.3516 0.440067 22.9764 0 20.5 0C18.0372 0 15.6784 0.4346 13.4917 1.23V39.77Z" fill="#EFEFEF"/>
<path d="M13.4917 1.22998C5.62247 4.09451 0 11.6385 0 20.5C0 29.3614 5.62247 36.9054 13.4917 39.77V1.22998Z" fill="#D70E29"/>
</svg>
