<svg width="314" height="57" viewBox="0 0 314 57" fill="none" xmlns="http://www.w3.org/2000/svg">
<path d="M15.946 56.6759C12.5775 56.6759 9.60337 56.2448 7.0258 55.3849C4.44608 54.525 2.10343 53.1026 0 51.1199L3.78876 47.3635C5.26073 48.9152 6.99778 50.038 8.99777 50.7363C10.9978 51.4345 13.2865 51.7837 15.8662 51.7837C19.1809 51.7837 21.7326 51.2233 23.5235 50.0983C25.3123 48.9734 26.2067 47.26 26.2067 44.9583C26.2067 41.5596 24.0472 39.676 19.7347 39.3075L13.3404 38.7579C9.60337 38.7579 6.73486 37.8334 4.73703 35.9864C2.73705 34.1394 1.73705 31.577 1.73705 28.3011C1.73705 24.7645 3.0517 21.9779 5.68314 19.9434C8.31458 17.9111 11.7607 16.8939 16.0236 16.8939C21.9158 16.8939 26.573 18.2883 29.9954 21.077L26.2843 24.7861C23.6011 22.7344 20.1528 21.7063 15.9438 21.7063C13.1033 21.7063 10.9439 22.2624 9.4719 23.3744C7.99778 24.4865 7.26071 26.077 7.26071 28.1416C7.26071 29.9433 7.78657 31.3464 8.84044 32.3528C9.89216 33.3593 11.6292 33.8614 14.0494 33.8614L20.2865 34.411C23.9696 34.7278 26.7993 35.6847 28.7713 37.2838C30.7454 38.8829 31.7325 41.4131 31.7325 44.8743C31.7325 48.5984 30.3122 51.4949 27.4696 53.5681C24.6291 55.6414 20.7865 56.6759 15.946 56.6759Z" fill="#E8EDFF"/>
<path d="M55.965 56.6756C50.9134 56.6756 46.7819 54.9515 43.5729 51.5054C40.3617 48.0593 38.7583 43.152 38.7583 36.7835C38.7583 30.3633 40.3488 25.4431 43.5341 22.0229C46.7173 18.6027 50.8616 16.8915 55.9672 16.8915C58.756 16.8915 61.0706 17.2988 62.9133 18.1156C64.7538 18.9324 66.702 20.4432 68.7559 22.6544L64.8874 26.2858C63.4133 24.6543 62.0189 23.5229 60.7042 22.8914C59.3874 22.26 57.8099 21.9432 55.9672 21.9432C52.0211 21.9432 49.1117 23.2729 47.2453 25.9302C45.3768 28.5875 44.4436 32.206 44.4436 36.7835C44.4436 39.2577 44.6268 41.2835 44.9953 42.8611C45.3638 44.4408 46.297 46.2942 47.797 48.4257C49.297 50.5571 52.019 51.6218 55.9672 51.6218C57.8616 51.6218 59.4413 51.305 60.7042 50.6735C61.9672 50.0421 63.3615 48.8847 64.8874 47.2016L68.7559 50.9106C66.7559 53.07 64.8098 54.5679 62.9133 55.4105C61.0167 56.2554 58.7021 56.6756 55.965 56.6756Z" fill="#E8EDFF"/>
<path d="M99.6177 56.2815V52.5725C98.0918 54.0703 96.4862 55.1285 94.8031 55.7492C93.1177 56.3677 90.9863 56.678 88.4087 56.678C85.6717 56.678 83.4756 56.4129 81.8183 55.8892C80.161 55.3634 78.5295 54.2837 76.9239 52.6522C75.3183 51.0208 74.5166 48.5466 74.5166 45.232C74.5166 41.7601 75.6739 39.023 77.9907 37.023C80.3053 35.023 83.6221 34.0231 87.9367 34.0231H99.6198V30.314C99.6198 27.4197 98.8483 25.2753 97.3095 23.8809C95.7686 22.4865 93.2514 21.7882 89.7535 21.7882C87.1954 21.7882 85.2363 22.1029 83.8807 22.7344C82.523 23.3658 81.2428 24.5231 80.0446 26.2085L76.0187 22.6568C77.7019 20.4456 79.5834 18.9348 81.6631 18.118C83.7407 17.3034 86.4389 16.8939 89.7535 16.8939C100.12 16.8939 105.305 21.2171 105.305 29.8658V56.2836H99.6177V56.2815ZM99.6177 38.2838H88.7234C82.9346 38.2838 80.0403 40.5726 80.0403 45.1523C80.0403 49.5725 83.0122 51.7837 88.9604 51.7837C90.9604 51.7837 92.6177 51.6264 93.9345 51.3095C95.2492 50.9949 96.525 50.2449 97.7621 49.0596C98.997 47.8764 99.6177 45.6803 99.6177 42.4691V38.2838Z" fill="#E8EDFF"/>
<path d="M126.848 56.2818C123.585 56.2818 121.126 55.3465 119.467 53.4758C117.809 51.6052 116.979 49.0879 116.979 45.9263V0H122.663V45.6957C122.663 47.6461 123.044 49.0815 123.807 50.0039C124.57 50.9263 125.926 51.3875 127.872 51.3875H130.949V56.2818H126.848Z" fill="#E8EDFF"/>
<path d="M160.634 56.2815V52.5725C159.108 54.0703 157.503 55.1285 155.82 55.7492C154.134 56.3677 152.003 56.678 149.425 56.678C146.688 56.678 144.492 56.4129 142.835 55.8892C141.178 55.3634 139.546 54.2837 137.941 52.6522C136.335 51.0208 135.533 48.5466 135.533 45.232C135.533 41.7601 136.691 39.023 139.007 37.023C141.322 35.023 144.639 34.0231 148.953 34.0231H160.636V30.314C160.636 27.4197 159.865 25.2753 158.326 23.8809C156.785 22.4865 154.268 21.7882 150.77 21.7882C148.212 21.7882 146.253 22.1029 144.897 22.7344C143.54 23.3658 142.259 24.5231 141.061 26.2085L137.035 22.6568C138.719 20.4456 140.6 18.9348 142.68 18.118C144.757 17.3034 147.456 16.8939 150.77 16.8939C161.136 16.8939 166.322 21.2171 166.322 29.8658V56.2836H160.634V56.2815ZM160.634 38.2838H149.74C143.951 38.2838 141.057 40.5726 141.057 45.1523C141.057 49.5725 144.029 51.7837 149.977 51.7837C151.977 51.7837 153.634 51.6264 154.951 51.3095C156.266 50.9949 157.542 50.2449 158.779 49.0596C160.014 47.8764 160.634 45.6803 160.634 42.4691V38.2838Z" fill="#E8EDFF"/>
<path d="M198.586 31.9393V23.726H189.492V31.9393H188.168V14.4825H189.492V22.5493H198.586V14.4825H199.91V31.9393H198.586Z" fill="#E8EDFF"/>
<path d="M205.304 31.9382V14.4815H206.627V31.9382H205.304Z" fill="#E8EDFF"/>
<path d="M223.006 28.2355C222.793 28.9057 222.427 29.52 221.903 30.0738C221.33 30.7118 220.644 31.2053 219.845 31.5566C219.043 31.9079 218.203 32.0846 217.319 32.0846C216.485 32.0846 215.692 31.9294 214.942 31.6191C214.19 31.3087 213.528 30.8669 212.955 30.2958C212.563 29.9036 212.256 29.4984 212.037 29.0825C211.817 28.6665 211.653 28.1881 211.547 27.6493C211.44 27.1105 211.379 26.4812 211.362 25.7614C211.345 25.0415 211.338 24.1924 211.338 23.2118C211.338 22.2312 211.347 21.3842 211.362 20.6752C211.379 19.964 211.44 19.339 211.547 18.8002C211.653 18.2614 211.817 17.7787 212.037 17.3541C212.256 16.9295 212.563 16.5201 212.955 16.1278C213.528 15.5567 214.19 15.1149 214.942 14.8046C215.694 14.4942 216.487 14.3391 217.319 14.3391C218.088 14.3391 218.802 14.4619 219.463 14.7076C220.125 14.9533 220.718 15.2959 221.241 15.7377C221.765 16.1796 222.2 16.714 222.552 17.3433C222.903 17.9726 223.144 18.6709 223.276 19.4403H221.953C221.692 18.2313 221.146 17.2744 220.323 16.5718C219.498 15.8692 218.498 15.5179 217.319 15.5179C216.698 15.5179 216.101 15.6321 215.53 15.8606C214.957 16.089 214.453 16.4252 214.011 16.8649C213.7 17.1752 213.455 17.5071 213.276 17.8584C213.095 18.2097 212.961 18.6278 212.871 19.1084C212.78 19.5912 212.724 20.1623 212.7 20.8239C212.675 21.4855 212.664 22.2829 212.664 23.214C212.664 24.145 212.677 24.9424 212.7 25.604C212.724 26.2657 212.782 26.8389 212.871 27.3195C212.961 27.8023 213.095 28.2182 213.276 28.5695C213.455 28.9208 213.7 29.2527 214.011 29.5631C214.453 30.0049 214.959 30.3389 215.53 30.5674C216.101 30.7958 216.698 30.91 217.319 30.91C218.004 30.91 218.668 30.7678 219.304 30.4812C219.942 30.1945 220.489 29.7743 220.946 29.2182C221.321 28.7441 221.59 28.2376 221.754 27.6989C221.918 27.1601 222 26.5135 222 25.7614V24.1924H217.317V23.0157H223.323V25.8605C223.323 26.7721 223.218 27.5652 223.006 28.2355Z" fill="#E8EDFF"/>
<path d="M238.403 31.9382V23.7249H229.308V31.9382H227.985V14.4815H229.308V22.5482H238.403V14.4815H239.726V31.9382H238.403Z" fill="#E8EDFF"/>
<path d="M245.118 31.9382V14.4815H255.709V15.6582H246.441V22.5482H254.336V23.7249H246.441V30.7615H255.709V31.9382H245.118Z" fill="#E8EDFF"/>
<path d="M270.077 31.9382L265.909 23.8973H261.105V31.9382H259.782V14.4815H266.426C267.129 14.4815 267.786 14.5849 268.4 14.7875C269.012 14.9922 269.545 15.2897 269.993 15.6819C270.443 16.0741 270.792 16.5655 271.047 17.1539C271.299 17.7422 271.426 18.4125 271.426 19.1646C271.426 20.4728 271.062 21.531 270.336 22.3392C269.607 23.1473 268.631 23.6603 267.407 23.8715L271.622 31.9382H270.077ZM269.818 17.6194C269.631 17.1776 269.366 16.8112 269.021 16.5159C268.676 16.2207 268.269 16.0052 267.795 15.8672C267.32 15.7293 266.805 15.6582 266.249 15.6582H261.101V22.7185H266.249C266.805 22.7185 267.32 22.6495 267.795 22.5094C268.269 22.3715 268.676 22.1538 269.021 21.8607C269.364 21.5676 269.631 21.1991 269.818 20.7573C270.006 20.3155 270.101 19.7939 270.101 19.1883C270.101 18.5849 270.006 18.0612 269.818 17.6194Z" fill="#E8EDFF"/>
<path d="M188.168 56.0535V38.5967H198.759V39.7734H189.492V46.6634H197.386V47.8402H189.492V54.8767H198.759V56.0535H188.168Z" fill="#E8EDFF"/>
<path d="M214.731 48.9793C214.722 49.6581 214.666 50.3284 214.561 50.99C214.455 51.6517 214.287 52.2853 214.058 52.8909C213.83 53.4965 213.496 54.018 213.054 54.4598C212.53 54.9835 211.901 55.3779 211.166 55.6495C210.431 55.9189 209.606 56.0546 208.69 56.0546H202.83V38.5979H208.69C210.537 38.5979 211.992 39.1281 213.054 40.1906C213.494 40.6324 213.83 41.1302 214.058 41.6862C214.287 42.2423 214.455 42.8177 214.561 43.4147C214.666 44.0116 214.724 44.6237 214.731 45.253C214.739 45.8823 214.744 46.4901 214.744 47.0784C214.744 47.6668 214.739 48.3004 214.731 48.9793ZM213.408 45.5224C213.399 44.975 213.36 44.4362 213.287 43.9039C213.211 43.3737 213.086 42.8651 212.908 42.3845C212.729 41.9018 212.466 41.4815 212.123 41.1216C211.617 40.5979 211.039 40.2423 210.395 40.0548C209.748 39.8673 209.074 39.7725 208.371 39.7725H204.155V54.8758H208.371C209.074 54.8758 209.748 54.781 210.395 54.5935C211.039 54.406 211.617 54.0504 212.123 53.5267C212.466 53.1667 212.729 52.7228 212.908 52.1905C213.086 51.6603 213.214 51.0956 213.287 50.4987C213.36 49.9017 213.401 49.3047 213.408 48.7099C213.414 48.1151 213.421 47.5698 213.421 47.0784C213.421 46.5871 213.416 46.0698 213.408 45.5224Z" fill="#E8EDFF"/>
<path d="M230.728 52.729C230.435 53.4402 230.022 54.0523 229.491 54.5674C228.961 55.0824 228.33 55.4833 227.604 55.7678C226.875 56.0544 226.071 56.1967 225.188 56.1967C224.306 56.1967 223.5 56.0523 222.774 55.7678C222.045 55.4833 221.416 55.0824 220.886 54.5674C220.356 54.0523 219.942 53.4402 219.649 52.729C219.356 52.0178 219.207 51.2377 219.207 50.3885V38.5955H220.53V50.2161C220.53 50.9359 220.64 51.5933 220.862 52.1902C221.082 52.7872 221.397 53.2937 221.806 53.7096C222.213 54.1256 222.705 54.4488 223.278 54.6773C223.849 54.9057 224.487 55.0199 225.19 55.0199C225.892 55.0199 226.53 54.9057 227.101 54.6773C227.672 54.4488 228.164 54.1256 228.573 53.7096C228.981 53.2937 229.295 52.7851 229.517 52.1902C229.737 51.5933 229.847 50.9359 229.847 50.2161V38.5955H231.17V50.3885C231.17 51.2377 231.024 52.0178 230.728 52.729Z" fill="#E8EDFF"/>
<path d="M246.813 53.2202C246.47 53.8495 246.041 54.384 245.526 54.8258C245.011 55.2676 244.423 55.606 243.761 55.843C243.099 56.0801 242.384 56.1986 241.617 56.1986C240.783 56.1986 239.989 56.0435 239.239 55.7331C238.487 55.4228 237.826 54.981 237.252 54.4099C236.86 54.0176 236.554 53.6124 236.334 53.1965C236.114 52.7806 235.951 52.3021 235.845 51.7633C235.737 51.2245 235.677 50.5952 235.662 49.8754C235.645 49.1556 235.638 48.3065 235.638 47.3259C235.638 46.3453 235.647 45.5005 235.662 44.7892C235.679 44.078 235.739 43.4531 235.845 42.9143C235.951 42.3755 236.114 41.8927 236.334 41.4682C236.554 41.0436 236.86 40.6341 237.252 40.2419C237.826 39.6708 238.487 39.229 239.239 38.9186C239.992 38.6083 240.785 38.4531 241.617 38.4531C242.401 38.4531 243.125 38.5716 243.787 38.8087C244.448 39.0458 245.033 39.3841 245.539 39.8259C246.045 40.2677 246.47 40.8022 246.813 41.4315C247.155 42.0608 247.401 42.7677 247.548 43.5522H246.198C245.938 42.3431 245.401 41.3863 244.593 40.6837C243.785 39.9811 242.791 39.6298 241.614 39.6298C240.994 39.6298 240.397 39.744 239.826 39.9725C239.252 40.2009 238.748 40.5371 238.306 40.9768C237.996 41.2871 237.75 41.619 237.571 41.9703C237.39 42.3216 237.257 42.7397 237.166 43.2203C237.076 43.703 237.02 44.2742 236.996 44.9358C236.97 45.5974 236.959 46.3948 236.959 47.3259C236.959 48.2569 236.972 49.0543 236.996 49.7159C237.02 50.3776 237.078 50.9487 237.166 51.4314C237.257 51.9142 237.39 52.3301 237.571 52.6814C237.75 53.0327 237.996 53.3646 238.306 53.6749C238.748 54.1168 239.255 54.4508 239.826 54.6793C240.397 54.9077 240.994 55.0219 241.614 55.0219C242.791 55.0219 243.791 54.6706 244.619 53.9681C245.444 53.2655 245.987 52.3086 246.248 51.0995H247.548C247.399 51.884 247.155 52.5909 246.813 53.2202Z" fill="#E8EDFF"/>
<path d="M262.135 56.0523L260.616 51.8109H252.476L250.957 56.0523H249.534L255.957 38.5955H257.133L263.556 56.0523H262.135ZM256.545 40.3606L252.892 50.6321H260.198L256.545 40.3606Z" fill="#E8EDFF"/>
<path d="M269.711 39.7722V56.0523H268.388V39.7722H263.189V38.5955H274.933V39.7722H269.711Z" fill="#E8EDFF"/>
<path d="M278.364 56.0523V38.5955H279.687V56.0523H278.364Z" fill="#E8EDFF"/>
<path d="M296.334 49.8732C296.316 50.593 296.256 51.2223 296.15 51.7611C296.043 52.2999 295.881 52.7783 295.659 53.1942C295.439 53.6102 295.133 54.0154 294.741 54.4076C294.168 54.9809 293.506 55.4205 292.756 55.7309C292.004 56.0412 291.211 56.1964 290.377 56.1964C289.543 56.1964 288.75 56.0412 288 55.7309C287.248 55.4205 286.586 54.9787 286.013 54.4076C285.62 54.0154 285.314 53.6102 285.095 53.1942C284.875 52.7783 284.711 52.2999 284.605 51.7611C284.498 51.2223 284.437 50.593 284.422 49.8732C284.405 49.1533 284.398 48.3042 284.398 47.3236C284.398 46.343 284.407 45.4982 284.422 44.787C284.439 44.0758 284.5 43.4508 284.605 42.912C284.711 42.3732 284.875 41.8905 285.095 41.4659C285.314 41.0413 285.62 40.6319 286.013 40.2396C286.586 39.6685 287.248 39.2267 288 38.9164C288.752 38.606 289.545 38.4508 290.377 38.4508C291.211 38.4508 292.002 38.606 292.756 38.9164C293.508 39.2267 294.17 39.6685 294.741 40.2396C295.133 40.6319 295.439 41.0413 295.659 41.4659C295.879 41.8905 296.043 42.3732 296.15 42.912C296.256 43.4508 296.319 44.0758 296.334 44.787C296.349 45.4982 296.357 46.343 296.357 47.3236C296.36 48.3042 296.351 49.1555 296.334 49.8732ZM294.997 44.9335C294.974 44.2719 294.916 43.7008 294.825 43.218C294.735 42.7374 294.601 42.3193 294.42 41.968C294.239 41.6168 293.995 41.2849 293.685 40.9745C293.243 40.5327 292.737 40.1987 292.166 39.9702C291.592 39.7418 290.998 39.6275 290.377 39.6275C289.756 39.6275 289.159 39.7418 288.588 39.9702C288.015 40.1987 287.51 40.5349 287.069 40.9745C286.758 41.2849 286.513 41.6168 286.334 41.968C286.153 42.3193 286.019 42.7374 285.929 43.218C285.838 43.7008 285.782 44.2719 285.758 44.9335C285.732 45.5952 285.722 46.3926 285.722 47.3236C285.722 48.2546 285.735 49.052 285.758 49.7137C285.782 50.3753 285.84 50.9464 285.929 51.4292C286.019 51.9119 286.153 52.3279 286.334 52.6792C286.513 53.0304 286.758 53.3623 287.069 53.6727C287.51 54.1145 288.017 54.4485 288.588 54.677C289.159 54.9054 289.756 55.0197 290.377 55.0197C290.998 55.0197 291.595 54.9054 292.166 54.677C292.739 54.4485 293.245 54.1123 293.685 53.6727C293.995 53.3623 294.241 53.0326 294.42 52.6792C294.599 52.3279 294.735 51.9119 294.825 51.4292C294.916 50.9464 294.972 50.3753 294.997 49.7137C295.021 49.052 295.034 48.2546 295.034 47.3236C295.034 46.3926 295.023 45.5952 294.997 44.9335Z" fill="#E8EDFF"/>
<path d="M312.467 56.0523L302.392 40.8757V56.0523H301.068V38.5955H302.392L312.467 53.7225V38.5955H313.79V56.0523H312.467Z" fill="#E8EDFF"/>
</svg>
