<svg width="90" height="90" viewBox="0 0 90 90" fill="none" xmlns="http://www.w3.org/2000/svg">
<circle cx="45" cy="45" r="44" stroke="#555C8C" stroke-width="2"/>
<path d="M37 25L57 45L37 65" stroke="#555C8C" stroke-width="2" stroke-miterlimit="10" stroke-linecap="round"/>
</svg>
