<svg width="355" height="222" viewBox="0 0 355 222" fill="none" xmlns="http://www.w3.org/2000/svg">
<path d="M131.999 221.76L213.468 40.4745L302.473 158.3L204.72 0L131.999 221.76Z" fill="#B5B5B5"/>
<path d="M207.313 144.869H177.59L201.824 103.015H183.252L178.96 109.362V99.9287H209.714L185.02 141.895H205.483L211.032 137.663L207.313 144.869Z" fill="#003076"/>
<path d="M260.143 98.3857C246.374 98.3857 235.215 109.163 235.215 122.455C235.215 135.747 246.374 146.525 260.143 146.525C273.912 146.525 285.071 135.747 285.071 122.455C285.071 109.163 273.912 98.3857 260.143 98.3857ZM260.143 143.846C249.564 143.846 240.998 134.273 240.998 122.455C240.998 110.637 249.573 101.065 260.143 101.065C270.721 101.065 279.287 110.637 279.287 122.455C279.287 134.273 270.721 143.846 260.143 143.846Z" fill="#003076"/>
<path d="M147.095 102.92C147.997 102.027 149.367 101.117 151.318 100.935H137.167C137.167 100.935 139.864 101.429 141.711 103.423C142.76 104.81 143.003 106.883 143.003 106.883V133.892L142.916 135.626L110.098 99.9287H103.413L106.759 101.784L110.106 105.469V139.059C110.106 139.345 110.037 141.418 108.667 142.866C107.765 143.759 106.395 144.669 104.444 144.851H118.595C118.595 144.851 115.898 144.357 114.051 142.363C113.002 140.975 112.76 138.903 112.76 138.903V111.894L145.725 146.62L145.656 138.6V106.718C145.665 106.44 145.734 104.368 147.095 102.92Z" fill="#003076"/>
<path d="M70.3602 138.921V138.695V111.912V108.712C70.3602 108.088 70.681 105.027 70.6897 104.949C70.8631 104.143 71.2967 102.981 72.3892 102.062C73.5337 101.169 75.2505 100.258 77.7129 100.076H59.8774C59.8774 100.076 63.2763 100.57 65.6087 102.565C66.9267 103.952 67.2301 106.024 67.2301 106.024V108.053V133.033V133.649L66.9527 139.71C66.8226 140.507 66.4411 141.851 65.2012 142.883C64.0654 143.776 62.3399 144.687 59.8774 144.869H77.7129C77.7129 144.869 74.314 144.374 71.9903 142.38C70.6637 140.993 70.3602 138.921 70.3602 138.921Z" fill="#003076"/>
<path d="M0.162598 100.224C0.162598 100.224 5.82452 101.854 5.82452 105.027C5.82452 108.201 5.82452 140.23 5.82452 140.23C5.82452 140.23 4.96613 143.36 2.47766 144.947H27.9086C27.9086 144.947 34.4289 144.045 35.4521 136.415C35.4521 136.415 31.6803 142.12 25.4635 142.12C19.2467 142.12 10.1598 142.12 10.1598 142.12V105.201C10.1598 105.201 10.0731 101.516 15.6917 100.224H0.162598Z" fill="#003076"/>
<path d="M350.317 142.605C350.317 142.605 340.372 129.513 338.595 126.652C337.329 124.605 336.054 123.357 335.421 122.802C339.583 120.998 344.456 117.209 344.196 110.524C343.797 100.406 335.048 100.067 335.048 100.067H329.829H322.068H311.993C311.993 100.067 315.392 100.562 317.724 102.556C319.042 103.943 319.346 106.015 319.346 106.015V108.044V133.024V133.64L319.068 139.701C318.938 140.499 318.557 141.842 317.317 142.874C316.181 143.767 314.456 144.678 311.993 144.86H329.829C329.829 144.86 326.43 144.366 324.106 142.371C322.788 140.984 322.485 138.912 322.485 138.912V138.686V124.137C324.912 124.137 328.554 124.137 330.366 124.137C330.566 124.137 330.817 124.12 331.095 124.085C333.236 127.423 342.705 142.042 345.687 144.27C349.06 146.785 354.488 144.27 354.488 144.27C351.575 144.322 350.317 142.605 350.317 142.605ZM322.485 121.857V111.911V108.712C322.485 108.088 322.805 105.027 322.814 104.949C322.866 104.724 322.935 104.463 323.031 104.195C323.352 103.51 324.323 102.339 327.21 101.914C328.19 101.802 331.069 101.637 334.459 103.024C337.624 104.455 339.626 107.151 339.626 112.102C339.626 116.316 337.953 118.709 336.158 120.079C333.392 121.692 331.095 121.848 331.095 121.848H322.485V121.857Z" fill="#003076"/>
<path d="M40.1346 172.727L40.1606 172.796C40.1953 174.426 39.5883 175.788 38.3311 176.889C37.0739 177.99 35.4178 178.536 33.3628 178.536C31.2732 178.536 29.5651 177.843 28.2472 176.447C26.9292 175.059 26.2703 173.291 26.2703 171.149V168.062C26.2703 165.921 26.9292 164.16 28.2472 162.764C29.5651 161.368 31.2732 160.675 33.3628 160.675C35.4525 160.675 37.1172 161.195 38.3571 162.244C39.597 163.293 40.1953 164.672 40.1606 166.397L40.1346 166.467H37.7328C37.7328 165.253 37.3513 164.29 36.5883 163.579C35.8253 162.868 34.7501 162.522 33.3628 162.522C31.9669 162.522 30.8484 163.051 30.0246 164.108C29.1923 165.166 28.7761 166.475 28.7761 168.045V171.158C28.7761 172.744 29.1923 174.062 30.0246 175.12C30.857 176.178 31.9669 176.707 33.3628 176.707C34.7501 176.707 35.8253 176.351 36.5883 175.649C37.3513 174.947 37.7328 173.976 37.7328 172.736H40.1346V172.727Z" fill="#B5B5B5"/>
<path d="M57.2415 178.285C57.1548 177.895 57.0941 177.548 57.0421 177.254C56.9901 176.959 56.9727 176.655 56.9641 176.352C56.4959 176.976 55.8889 177.488 55.1432 177.904C54.3976 178.32 53.5912 178.528 52.7241 178.528C51.2935 178.528 50.201 178.181 49.4553 177.496C48.7096 176.811 48.3281 175.858 48.3281 174.652C48.3281 173.421 48.857 172.459 49.9235 171.765C50.99 171.071 52.4293 170.725 54.2502 170.725H56.9727V169.45C56.9727 168.696 56.73 168.097 56.2357 167.655C55.7415 167.213 55.0479 166.996 54.1548 166.996C53.3397 166.996 52.6895 167.187 52.1866 167.569C51.6837 167.95 51.4409 168.41 51.4409 168.938L49.0651 168.964L49.0391 168.895C48.9784 167.959 49.4466 167.1 50.4438 166.32C51.4409 165.54 52.7241 165.149 54.3022 165.149C55.8629 165.149 57.1115 165.522 58.0652 166.268C59.019 167.014 59.4872 168.08 59.4872 169.485V175.702C59.4872 176.161 59.5132 176.612 59.5653 177.037C59.6173 177.462 59.7127 177.887 59.8427 178.303H57.2415V178.285ZM53.0883 176.569C53.99 176.569 54.8138 176.352 55.5421 175.91C56.2704 175.476 56.7473 174.973 56.9641 174.41V172.311H54.1548C53.149 172.311 52.3426 172.554 51.7357 173.031C51.1287 173.508 50.8253 174.071 50.8253 174.713C50.8253 175.285 51.016 175.736 51.3975 176.074C51.779 176.404 52.3426 176.569 53.0883 176.569Z" fill="#B5B5B5"/>
<path d="M80.5397 172.328C80.5397 174.192 80.0628 175.692 79.1177 176.828C78.1726 177.972 76.8634 178.536 75.1899 178.536C74.3402 178.536 73.6032 178.406 72.9616 178.137C72.3199 177.868 71.7737 177.47 71.3315 176.941V183.253H68.8257V165.391H70.7419L71.1321 167.065C71.5829 166.449 72.1379 165.972 72.8055 165.643C73.4731 165.313 74.2535 165.157 75.1466 165.157C76.846 165.157 78.1726 165.79 79.1177 167.056C80.0628 168.322 80.531 170.004 80.531 172.085V172.328H80.5397ZM78.0339 172.076C78.0339 170.611 77.7304 169.415 77.1148 168.469C76.4992 167.524 75.5974 167.056 74.4009 167.056C73.6812 167.056 73.0656 167.212 72.5627 167.516C72.0512 167.819 71.6436 168.244 71.3315 168.773V175.007C71.6436 175.536 72.0512 175.952 72.5627 176.256C73.0743 176.55 73.6899 176.707 74.4269 176.707C75.6148 176.707 76.5079 176.299 77.1235 175.484C77.7304 174.669 78.0339 173.62 78.0339 172.328V172.076Z" fill="#B5B5B5"/>
<path d="M92.0368 162.079H89.531V159.678H92.0368V162.079ZM92.0368 178.285H89.531V165.383H92.0368V178.285Z" fill="#B5B5B5"/>
<path d="M105.095 162.271V165.383H107.696V167.126H105.095V174.964C105.095 175.571 105.225 175.996 105.494 176.239C105.763 176.49 106.118 176.612 106.552 176.612C106.699 176.612 106.855 176.594 107.037 176.56C107.219 176.525 107.367 176.49 107.479 176.447L107.826 178.06C107.644 178.207 107.367 178.32 107.002 178.415C106.638 178.511 106.283 178.554 105.919 178.554C104.904 178.554 104.089 178.268 103.491 177.687C102.893 177.106 102.589 176.204 102.589 174.973V167.135H100.404V165.392H102.589V162.279H105.095V162.271Z" fill="#B5B5B5"/>
<path d="M124.552 178.285C124.465 177.895 124.404 177.548 124.352 177.254C124.3 176.959 124.283 176.655 124.274 176.352C123.806 176.976 123.199 177.488 122.453 177.904C121.708 178.32 120.901 178.528 120.034 178.528C118.604 178.528 117.511 178.181 116.765 177.496C116.02 176.811 115.638 175.858 115.638 174.652C115.638 173.421 116.167 172.459 117.234 171.765C118.3 171.071 119.739 170.725 121.56 170.725H124.283V169.45C124.283 168.696 124.04 168.097 123.546 167.655C123.052 167.213 122.358 166.996 121.465 166.996C120.65 166.996 120 167.187 119.497 167.569C118.994 167.95 118.751 168.41 118.751 168.938L116.375 168.964L116.349 168.895C116.288 167.959 116.757 167.1 117.754 166.32C118.751 165.54 120.034 165.149 121.612 165.149C123.173 165.149 124.422 165.522 125.375 166.268C126.329 167.014 126.797 168.08 126.797 169.485V175.702C126.797 176.161 126.823 176.612 126.875 177.037C126.927 177.462 127.023 177.887 127.153 178.303H124.552V178.285ZM120.398 176.569C121.3 176.569 122.124 176.352 122.852 175.91C123.58 175.476 124.057 174.973 124.274 174.41V172.311H121.465C120.459 172.311 119.653 172.554 119.046 173.031C118.439 173.508 118.135 174.071 118.135 174.713C118.135 175.285 118.326 175.736 118.708 176.074C119.089 176.404 119.653 176.569 120.398 176.569Z" fill="#B5B5B5"/>
<path d="M138.841 178.285H136.335V159.678H138.841V178.285Z" fill="#B5B5B5"/>
<path d="M177.616 171.323V178.285H175.11V160.927H182.185C184.162 160.927 185.697 161.404 186.789 162.357C187.89 163.311 188.437 164.568 188.437 166.129C188.437 167.707 187.89 168.964 186.789 169.91C185.697 170.855 184.153 171.332 182.185 171.332H177.616V171.323ZM177.616 169.485H182.194C183.451 169.485 184.379 169.173 185.003 168.54C185.619 167.907 185.931 167.109 185.931 166.146C185.931 165.184 185.619 164.378 184.994 163.736C184.37 163.094 183.442 162.774 182.194 162.774H177.616V169.485Z" fill="#B5B5B5"/>
<path d="M205.344 178.285C205.257 177.895 205.197 177.548 205.145 177.254C205.093 176.959 205.075 176.655 205.067 176.352C204.598 176.976 203.991 177.488 203.246 177.904C202.5 178.32 201.694 178.528 200.827 178.528C199.396 178.528 198.304 178.181 197.558 177.496C196.812 176.811 196.431 175.858 196.431 174.652C196.431 173.421 196.96 172.459 198.026 171.765C199.093 171.071 200.532 170.725 202.353 170.725H205.075V169.45C205.075 168.696 204.832 168.097 204.338 167.655C203.844 167.213 203.15 166.996 202.257 166.996C201.442 166.996 200.792 167.187 200.289 167.569C199.786 167.95 199.543 168.41 199.543 168.938L197.168 168.964L197.142 168.895C197.081 167.959 197.549 167.1 198.546 166.32C199.543 165.54 200.827 165.149 202.405 165.149C203.965 165.149 205.214 165.522 206.168 166.268C207.122 167.014 207.59 168.08 207.59 169.485V175.702C207.59 176.161 207.616 176.612 207.668 177.037C207.72 177.462 207.815 177.887 207.945 178.303H205.344V178.285ZM201.191 176.569C202.093 176.569 202.916 176.352 203.645 175.91C204.373 175.476 204.85 174.973 205.067 174.41V172.311H202.257C201.252 172.311 200.445 172.554 199.838 173.031C199.231 173.508 198.928 174.071 198.928 174.713C198.928 175.285 199.119 175.736 199.5 176.074C199.882 176.404 200.445 176.569 201.191 176.569Z" fill="#B5B5B5"/>
<path d="M223.431 167.456L222.148 167.386C221.489 167.386 220.934 167.534 220.475 167.829C220.024 168.123 219.668 168.54 219.425 169.068V178.285H216.928V165.383H219.165L219.408 167.265C219.798 166.597 220.275 166.077 220.847 165.704C221.42 165.331 222.079 165.141 222.824 165.141C223.006 165.141 223.188 165.158 223.362 165.184C223.535 165.21 223.674 165.245 223.778 165.271L223.431 167.456Z" fill="#B5B5B5"/>
<path d="M235.457 162.271V165.383H238.058V167.126H235.457V174.964C235.457 175.571 235.587 175.996 235.856 176.239C236.125 176.49 236.48 176.612 236.914 176.612C237.061 176.612 237.217 176.594 237.399 176.56C237.581 176.525 237.729 176.49 237.842 176.447L238.188 178.06C238.006 178.207 237.729 178.32 237.365 178.415C237.001 178.511 236.645 178.554 236.281 178.554C235.266 178.554 234.451 178.268 233.853 177.687C233.255 177.106 232.951 176.204 232.951 174.973V167.135H230.766V165.392H232.951V162.279H235.457V162.271Z" fill="#B5B5B5"/>
<path d="M248.706 165.383L248.888 167.3C249.348 166.615 249.92 166.086 250.614 165.704C251.307 165.331 252.088 165.141 252.972 165.141C254.455 165.141 255.599 165.548 256.414 166.363C257.229 167.178 257.637 168.435 257.637 170.135V178.277H255.131V170.178C255.131 169.042 254.888 168.236 254.411 167.759C253.935 167.282 253.206 167.039 252.218 167.039C251.446 167.039 250.796 167.187 250.258 167.473C249.721 167.759 249.296 168.167 248.984 168.696V178.268H246.478V165.366H248.706V165.383Z" fill="#B5B5B5"/>
<path d="M272.671 178.537C270.694 178.537 269.16 177.947 268.05 176.759C266.949 175.571 266.394 174.019 266.394 172.086V171.557C266.394 169.701 266.966 168.175 268.102 166.961C269.238 165.748 270.634 165.141 272.272 165.141C274.111 165.141 275.489 165.678 276.408 166.753C277.327 167.829 277.787 169.25 277.787 171.037V172.277H268.995L268.96 172.337C268.96 173.629 269.264 174.687 269.871 175.493C270.478 176.3 271.414 176.707 272.663 176.707C273.512 176.707 274.249 176.595 274.891 176.369C275.533 176.144 276.079 175.832 276.538 175.433L277.518 176.959C277.024 177.401 276.382 177.782 275.576 178.086C274.778 178.389 273.807 178.537 272.671 178.537ZM272.272 166.996C271.397 166.996 270.677 167.308 270.105 167.941C269.533 168.574 269.186 169.381 269.056 170.369L269.082 170.43H275.281V170.239C275.281 169.303 275.038 168.522 274.544 167.915C274.059 167.3 273.304 166.996 272.272 166.996Z" fill="#B5B5B5"/>
<path d="M292.822 167.456L291.539 167.386C290.88 167.386 290.325 167.534 289.866 167.829C289.415 168.123 289.059 168.54 288.816 169.068V178.285H286.311V165.383H288.548L288.79 167.265C289.181 166.597 289.657 166.077 290.23 165.704C290.802 165.331 291.461 165.141 292.207 165.141C292.389 165.141 292.571 165.158 292.744 165.184C292.918 165.21 293.056 165.245 293.16 165.271L292.822 167.456Z" fill="#B5B5B5"/>
<path d="M309.149 174.817C309.149 174.297 308.941 173.881 308.516 173.551C308.091 173.222 307.302 172.936 306.131 172.693C304.51 172.363 303.27 171.913 302.403 171.323C301.536 170.733 301.102 169.944 301.102 168.964C301.102 167.915 301.579 167.014 302.533 166.268C303.487 165.522 304.718 165.149 306.235 165.149C307.796 165.149 309.053 165.548 310.025 166.346C310.996 167.144 311.455 168.071 311.412 169.129L311.386 169.199H309.001C309.001 168.644 308.741 168.141 308.221 167.681C307.701 167.23 307.042 167.005 306.244 167.005C305.36 167.005 304.701 167.187 304.267 167.569C303.834 167.941 303.617 168.384 303.617 168.904C303.617 169.415 303.808 169.806 304.181 170.083C304.553 170.36 305.334 170.621 306.513 170.846C308.195 171.175 309.478 171.652 310.345 172.268C311.212 172.884 311.655 173.681 311.655 174.661C311.655 175.806 311.16 176.742 310.172 177.462C309.183 178.181 307.892 178.546 306.305 178.546C304.553 178.546 303.175 178.129 302.16 177.297C301.154 176.465 300.678 175.485 300.721 174.375L300.747 174.306H303.131C303.175 175.138 303.504 175.754 304.12 176.135C304.735 176.517 305.464 176.716 306.296 176.716C307.189 176.716 307.883 176.543 308.386 176.187C308.889 175.832 309.149 175.363 309.149 174.817Z" fill="#B5B5B5"/>
</svg>
