<svg width="11" height="16" viewBox="0 0 11 16" fill="none" xmlns="http://www.w3.org/2000/svg">
<path d="M2.31348 13.9989L8.30748 7.99447L2.31348 2" stroke="#00A3AE" stroke-width="3" stroke-miterlimit="10" stroke-linecap="round"/>
</svg>
